{
      "videoID": 2061471,
      "mediaID": "06ad171abb73314f794a4fd6932b5e587bf39dfe",
      "videoTitle": "A Very Special Full Frontal Special",
      "videoType": "episode",
      "isPlayable": true,
      "isAuthRequired": true,
      "availabilityInfo": "Expires September 16",
      "originalPremiereDate": 1469053800000,
      "seasonNumber": 2,
      "episodeNumber": 1,
      "videoDescription": "In this new documentary film from the makers of Full Frontal, Samantha Bee accidentally discovers America on her way to the conventions.",
      "videoShortDescription": "In this new documentary film from the makers of Full Frontal, Samantha Bee accidentally discovers America on her way to the conventions.",
      "duration": 1267,
      "videoTvRating": "TV-MA-L",
      "videoAdTags": [],
      "images": [
        {
          "type": "445x250",
          "url": "http://i.cdn.turner.com/v5cache/TBS/Images/Dynamic/i535/full-frontal-default-800x450-445x250_090220151027.jpg",
          "name": "full-frontal"
        },
        {
          "type": "320x180",
          "url": "http://i.cdn.turner.com/v5cache/TBS/Images/Dynamic/i535/full-frontal-default-800x450-320x180_090220151027.jpg",
          "name": "full-frontal"
        }
      ],
      "seriesReferencePath": "/feeds/v1/mobile/content/123456",
      "episodeReferencePath": null,
      "movieReferencePath": null,
      "videoClipReferencePath": "/feeds/v1/mobile/content/111112/clips",
      "videoMoreWaysToWatch": [
        {
          "mwtwName": "Amazon",
          "mwtwURL": "http://amzn.to/1pOdZtK",
          "mwtwImageURL": "http://i.cdn.turner.com/v5cache/TNT/Images/i286/svod_ests_amazon_80x80.png"
          },
          {
          "mwtwName": "iTunes",
          "mwtwURL": "https://geo.itunes.apple.com/us/tv-season/angie-tribeca-season-1/id1066531518?at=10l7dS&mt=4",
          "mwtwImageURL": "http://i.cdn.turner.com/v5cache/TNT/Images/i286/svod_ests_itunes_80x80.png"
          }
      ]
}