{
    "videoID": 823592,
    "mediaID": "ecddecdc214fa156190817a39f2fc0d675895440",
    "videoTitle": "The Muppets",
    "videoType": "movie" ,
    "isPlayable": true,
    "isAuthRequired": true,
    "startDate": 1472871600000,
    "expirationDate": 1473994799000,
    "availabilityInfo": "Expires September 16",
    "originalPremiereDate": 1469053800000,
    "seasonNumber": 0,
    "episodeNumber": 0,
    "videoDescription": "Walter, the world's biggest Muppet fan, his brother Gary and Gary's girlfriend Mary discover Tex Richman's plan to raze the Muppet Theater and drill for the oil recently discovered beneath it. To stage a telethon and raise $10 million to save the theater, the three help Kermit reunite the Muppets.",
    "videoShortDescription": "Walter, the world's biggest Muppet fan, his brother Gary and Gary's girlfriend Mary discover Tex Richman's plan to raze the Muppet Theater and drill for the oil recently discovered beneath it.",
    "duration": "5155",
    "videoTvRating": null,
    "videoAdTags": [],
    "images": [
      {
        "type": "445x250",
        "url": "http://i.cdn.turner.com/v5cache/TBS/Images/Dynamic/i702/muppets-445x250_082220160219.jpg",
        "name": "muppets"
      },
      {
        "type": "320x180",
        "url": "http://i.cdn.turner.com/v5cache/TBS/Images/Dynamic/i702/muppets-320x180_082220160219.jpg",
        "name": "muppets"
      }
    ],
    "seriesReferencePath": null,
    "episodeReferencePath": null,
    "movieReferencePath": null,
    "videoClipReferencePath": null,
    "videoMoreWaysToWatch": []


}