{
  "type": "445x250",
  "url": "http://i.cdn.turner.com/v5cache/TBS/Images/Dynamic/i578/angie-tribeca-s1e105-ferret-royale-800x450-445x250_010820160452.jpg",
  "name": "angie-tribeca-s1e105-ferret-royale"
}