{
    "$schema": "http://json-schema.org/draft-04/schema#",
    "id": "http://i.cdn.turner.com/v5cache/TBS/apiSchemas/video.json#",
    "title": "TEN Video",
    "description": "Every Video rendered from TEN APIs conform to this definition",
    "type": "object",
    "properties":
    {
        "videoID":
        {
            "type": "string"
        },
        "mediaID":
        {
            "type": "string"
        },
        "videoTitle":
        {
            "type": "string"
        },
        "videoType":
        {
            "enum": ["clip", "episode", "movie", "other"]
        },
        "isPlayable":
        {
            "type": "boolean"
        },
        "isAuthRequired":
        {
            "type": "boolean"
        },
        "startDate":
        {
            "type": "integer",
            "format": "date-time" // epoch in seconds
        },
        "expirationDate":
        {
            "type": "integer",
            "format": "date-time" // epoch in seconds
        },
        "availabilityInfo":
        {
            "type": "string"
        },
        "originalPremiereDate":
        {
            "type": "integer",
            "format": "date-time"  // epoch in seconds
        },
        "seasonNumber":
        {
            "type": "integer"
        },
        "episodeNumber":
        {
            "type": "integer"
        },
        "videoDescription":
        {
            "type": "string"
        },
        "videoShortDescription":
        {
            "type": "string"
        },
        "duration":
        {
            "type": "integer"  // seconds
        },
        "videoTvRating":
        {
            "type": "string"
        },
        "videoAdTags": // this is not being populated right now
        {
            "type": "array",
            "items":
            {
                "type": "object",
                "properties":
                {
                    "$ref": "http://i.cdn.turner.com/v5cache/TBS/apiSchemas/ad.json#"
                }
            }
        },
        "images":
        {
            "type": "array",
            "items":
            {
                "type": "object",
                "properties":
                {
                    "$ref": "http://i.cdn.turner.com/v5cache/TBS/apiSchemas/image.json#"
                },
                "required": [
                    "type",
                    "url"
                ]
            }
        },
        "seriesReferencePath":
        {
            "type": "string" // path used to pull a related series feed
        },
        "episodeReferencePath":
        {
            "type": "string" // path used to pull a related episode feed
        },
        "movieReferencePath":
        {
            "type": "string" // path used to pull a related movie feed
        },
        "videoClipReferencePath":
        {
            "type": "string" // path used to pull related clips feed
        },
        "videoMoreWaysToWatch":
        {
            "type": "array",
            "items":
            {
                "type": "object",
                "properties":
                {
                    "$ref": "http://i.cdn.turner.com/v5cache/TBS/apiSchemas/mwtw.json#"
                }
            }
        }
    },
    "oneOf": [
    {
        "properties":
        {
            "isPlayable": true
        },
        "dependencies":
        {
            "isPlayable": ["isAuthRequired"]
        }
    },
    {
        "properties":
        {
            "isPlayable": false
        },
        "dependencies":
        {
            "isPlayable":
            {}
        }
    }],
    "required": [
        "videoID",
        "videoType",
        "videoTitle",
        "isPlayable",
        "duration"
    ]
}